# BEGIN PLOT
Legend=1
LogY=1
Title=Pseudorapidity $+/-$ ratio of first jet
XLabel=$|\eta(\mathrm{jet~1}|$
YLabel=$\eta(\mathrm{jet~1})_+/\eta(\mathrm{jet~1})_-$
DrawOnly=//Users/apapaefs/trs/Projects/HEJ/hejfourjets/results/15092023/SHERPA-4J_LO-818.yoda/MC_JETS/jet_eta_pmratio_1
LegendOnly=//Users/apapaefs/trs/Projects/HEJ/hejfourjets/results/15092023/SHERPA-4J_LO-818.yoda/MC_JETS/jet_eta_pmratio_1
# END PLOT

# BEGIN HISTO1D //Users/apapaefs/trs/Projects/HEJ/hejfourjets/results/15092023/SHERPA-4J_LO-818.yoda/MC_JETS/jet_eta_pmratio_1
ErrorBars=1
ErrorBreakdown={0: {"": {up: 0.010776162299786717, dn: 0.010776162299786717}}, 1: {"": {up: 0.012111673079651749, dn: 0.012111673079651749}}, 2: {"": {up: 0.0095987573542897098, dn: 0.0095987573542897098}}, 3: {"": {up: 0.009304093125166963, dn: 0.009304093125166963}}, 4: {"": {up: 0.011914812912168452, dn: 0.011914812912168452}}, 5: {"": {up: 0.0094466217229356858, dn: 0.0094466217229356858}}, 6: {"": {up: 0.011585013408911781, dn: 0.011585013408911781}}, 7: {"": {up: 0.011087187121859764, dn: 0.011087187121859764}}, 8: {"": {up: 0.011657446165564475, dn: 0.011657446165564475}}, 9: {"": {up: 0.012779851779831328, dn: 0.012779851779831328}}, 10: {"": {up: 0.011070233270996157, dn: 0.011070233270996157}}, 11: {"": {up: 0.012005962569742774, dn: 0.012005962569742774}}, 12: {"": {up: 0.013995037440894986, dn: 0.013995037440894986}}, 13: {"": {up: 0.013872380115916832, dn: 0.013872380115916832}}, 14: {"": {up: 0.015473860549044406, dn: 0.015473860549044406}}, 15: {"": {up: 0.018375705325562382, dn: 0.018375705325562382}}, 16: {"": {up: 0.022406237081781875, dn: 0.022406237081781875}}, 17: {"": {up: 0.025159985355097954, dn: 0.025159985355097954}}, 18: {"": {up: 0.027193534379485979, dn: 0.027193534379485979}}, 19: {"": {up: 0.046082326903446359, dn: 0.046082326903446359}}, 20: {"": {up: 0.1741981738117491, dn: 0.1741981738117491}}, 21: {"": {up: 0.097960397930914753, dn: 0.097960397930914753}}, 22: {"": {up: 0.080588971702712384, dn: 0.080588971702712384}}, 23: {"": {up: 0.13320136219181231, dn: 0.13320136219181231}}, 24: {"": {up: .nan, dn: .nan}}}
LineColor=red
LineStyle=solid
Path=//Users/apapaefs/trs/Projects/HEJ/hejfourjets/results/15092023/SHERPA-4J_LO-818.yoda/MC_JETS/jet_eta_pmratio_1
Title=Sherpa 4J LO
# xlow	 xhigh	 val	 errminus	 errplus
0.000000e+00	2.000000e-01	9.993223e-01	1.077616e-02	1.077616e-02
2.000000e-01	4.000000e-01	1.010311e+00	1.211167e-02	1.211167e-02
4.000000e-01	6.000000e-01	1.008034e+00	9.598757e-03	9.598757e-03
6.000000e-01	8.000000e-01	9.927050e-01	9.304093e-03	9.304093e-03
8.000000e-01	1.000000e+00	9.863655e-01	1.191481e-02	1.191481e-02
1.000000e+00	1.200000e+00	1.001381e+00	9.446622e-03	9.446622e-03
1.200000e+00	1.400000e+00	1.005011e+00	1.158501e-02	1.158501e-02
1.400000e+00	1.600000e+00	1.000330e+00	1.108719e-02	1.108719e-02
1.600000e+00	1.800000e+00	9.916655e-01	1.165745e-02	1.165745e-02
1.800000e+00	2.000000e+00	9.750182e-01	1.277985e-02	1.277985e-02
2.000000e+00	2.200000e+00	9.884174e-01	1.107023e-02	1.107023e-02
2.200000e+00	2.400000e+00	1.003008e+00	1.200596e-02	1.200596e-02
2.400000e+00	2.600000e+00	1.010440e+00	1.399504e-02	1.399504e-02
2.600000e+00	2.800000e+00	1.020041e+00	1.387238e-02	1.387238e-02
2.800000e+00	3.000000e+00	9.766566e-01	1.547386e-02	1.547386e-02
3.000000e+00	3.200000e+00	1.024968e+00	1.837571e-02	1.837571e-02
3.200000e+00	3.400000e+00	9.931740e-01	2.240624e-02	2.240624e-02
3.400000e+00	3.600000e+00	9.911573e-01	2.515999e-02	2.515999e-02
3.600000e+00	3.800000e+00	1.025597e+00	2.719353e-02	2.719353e-02
3.800000e+00	4.000000e+00	1.055439e+00	4.608233e-02	4.608233e-02
4.000000e+00	4.200000e+00	1.146144e+00	1.741982e-01	1.741982e-01
4.200000e+00	4.400000e+00	9.238444e-01	9.796040e-02	9.796040e-02
4.400000e+00	4.600000e+00	9.721105e-01	8.058897e-02	8.058897e-02
4.600000e+00	4.800000e+00	9.693592e-01	1.332014e-01	1.332014e-01
4.800000e+00	5.000000e+00	nan	nan	nan
# END HISTO1D

